<svg width="108" height="72" viewBox="0 0 108 72" fill="none" xmlns="http://www.w3.org/2000/svg">
    <path fill="#3172b9" d="M90.5171 6.36532C88.4872 4.34733 86.077 2.74651 83.4243 1.65433C80.7715 0.562149 77.9282 0 75.0568 0C72.1853 0 69.342 0.562149 66.6893 1.65433C64.0366 2.74651 61.6264 4.34733 59.5964 6.36532L55.3836 10.5514L51.1707 6.36532C47.0704 2.29103 41.5092 0.00211185 35.7104 0.00211189C29.9117 0.00211194 24.3504 2.29103 20.2501 6.36532C16.1497 10.4396 13.8462 15.9655 13.8462 21.7275C13.8462 27.4894 16.1497 33.0153 20.2501 37.0896L24.4629 41.2757L55.3836 72L86.3043 41.2757L90.5171 37.0896C92.548 35.0726 94.159 32.6777 95.2582 30.0418C96.3574 27.4059 96.9231 24.5807 96.9231 21.7275C96.9231 18.8743 96.3574 16.049 95.2582 13.4131C94.159 10.7772 92.548 8.38237 90.5171 6.36532Z"/>
</svg>
